{"results":[{"name":"M Dreams Pty Ltd","id":"14645608","categories":[{"name":"Shoes - Retail","id":"27022","sensitive":false}],"primaryAddress":{"state":"VIC","type":"PHYSICAL","latitude":"-37.810825","longitude":"144.965499","postcode":"3000","suburb":"Melbourne","addressLine":"Shopng Cntr 6-8 Albert Coates La","geoCodeGranularity":"PROPERTY"},"primaryContacts":[{"value":"(03) 9650 6001","type":"PHONE"}],"hasExposureProducts":false,"listingType":"Business","reportingId":"eyJzb3VyY2UiOiJZRUxMT1ciLCJwcm9kdWN0SWQiOiI0ODEyOTM0NTgiLCJwcm9kdWN0VmVyc2lvbiI6IjIifQ","detailsLink":"http://www.yellowpages.com.au/vic/melbourne/m-dreams-pty-ltd-14645608-listing.html?referredBy=SAPI-9iTF2yxrcw5YGBJgYSrhK8FVPcFRMcrQ","pureMobileBusiness":false},{"name":"M Dreams Pty Ltd","id":"721303663V00W","primaryAddress":{"state":"VIC","latitude":"-37.810825","longitude":"144.965499","postcode":"3000","suburb":"Melbourne","addressLine":"Q V Shopng Cntr 6-8 Albert Coates La","geoCodeGranularity":"PROPERTY"},"shortDescriptor":"","primaryContacts":[{"value":"(03) 9650 6001","type":"PHONE","description":"0396506001"}],"hasExposureProducts":false,"listingType":"B","reportingId":"eyJzb3VyY2UiOiJXSElURSIsImJvb2tJZCI6IlYwMFciLCJsaXN0aW5nTmFtZSI6Ik0gRHJlYW1zIFB0eSBMdGQifQ"},{"name":"Sterling","id":"12816125","categories":[{"name":"Menswear--Retail","id":"28223","sensitive":false}],"primaryAddress":{"state":"VIC","type":"PHYSICAL","latitude":"-37.810856","longitude":"144.965575","postcode":"3000","suburb":"Melbourne","addressLine":"QV Building Shop 65- 67 Albert Coates La","geoCodeGranularity":"PROPERTY"},"primaryContacts":[{"value":"(03) 9639 0389","type":"PHONE"}],"hasExposureProducts":false,"listingType":"Business","reportingId":"eyJzb3VyY2UiOiJZRUxMT1ciLCJwcm9kdWN0SWQiOiIxOTI3MzI5NzUiLCJwcm9kdWN0VmVyc2lvbiI6IjEifQ","detailsLink":"http://www.yellowpages.com.au/vic/melbourne/sterling-12816125-listing.html?referredBy=SAPI-9iTF2yxrcw5YGBJgYSrhK8FVPcFRMcrQ","pureMobileBusiness":false},{"name":"Wayne Cooper","id":"12389459","categories":[{"name":"Boutiques","id":"41467","sensitive":false}],"primaryAddress":{"state":"VIC","type":"PHYSICAL","latitude":"-37.810874","longitude":"144.965349","postcode":"3000","suburb":"Melbourne","addressLine":"22- 24 Albert Coates La","geoCodeGranularity":"PROPERTY"},"primaryContacts":[{"value":"(03) 9650 8696","type":"PHONE"}],"hasExposureProducts":false,"listingType":"Business","reportingId":"eyJzb3VyY2UiOiJZRUxMT1ciLCJwcm9kdWN0SWQiOiIyNTI3OTEzOTAiLCJwcm9kdWN0VmVyc2lvbiI6IjEifQ","detailsLink":"http://www.yellowpages.com.au/vic/melbourne/wayne-cooper-12389459-listing.html?referredBy=SAPI-9iTF2yxrcw5YGBJgYSrhK8FVPcFRMcrQ","pureMobileBusiness":false},{"name":"Kamil's Kebabs","id":"12589045","categories":[{"name":"Take Away Food","id":"11827","sensitive":false}],"primaryAddress":{"state":"VIC","type":"PHYSICAL","latitude":"-37.81036","longitude":"144.96553","postcode":"3000","suburb":"Melbourne","addressLine":"Urban Market QV 210 Lonsdale St","geoCodeGranularity":"PROPERTY"},"primaryContacts":[{"value":"0422 890 266","type":"PHONE"}],"hasExposureProducts":false,"listingType":"Business","reportingId":"eyJzb3VyY2UiOiJZRUxMT1ciLCJwcm9kdWN0SWQiOiIyNDI3OTEzNzUiLCJwcm9kdWN0VmVyc2lvbiI6IjIifQ","detailsLink":"http://www.yellowpages.com.au/vic/melbourne/kamils-kebabs-12589045-listing.html?referredBy=SAPI-9iTF2yxrcw5YGBJgYSrhK8FVPcFRMcrQ","pureMobileBusiness":false},{"name":"New Zealand Natural Ice Cream","id":"11966694","categories":[{"name":"Ice Cream--Retail","id":"17299","sensitive":false}],"primaryAddress":{"state":"VIC","type":"VANITY","latitude":"-37.81036","longitude":"144.96553","postcode":"3000","suburb":"Melbourne","addressLine":"Queen Vic Market, Shop 69 Lvl 1, 210 Lonsdale St","geoCodeGranularity":"PROPERTY"},"primaryContacts":[{"value":"(03) 9650 6088","type":"PHONE"}],"hasExposureProducts":false,"listingType":"Business","reportingId":"eyJzb3VyY2UiOiJZRUxMT1ciLCJwcm9kdWN0SWQiOiIyNDY5MTA0MjIiLCJwcm9kdWN0VmVyc2lvbiI6IjEifQ","detailsLink":"http://www.yellowpages.com.au/vic/melbourne/new-zealand-natural-ice-cream-11966694-listing.html?referredBy=SAPI-9iTF2yxrcw5YGBJgYSrhK8FVPcFRMcrQ","pureMobileBusiness":false},{"name":"KFC","id":"12421148","categories":[{"name":"Take Away Food","id":"11827","sensitive":false}],"primaryAddress":{"state":"VIC","type":"VANITY","latitude":"-37.81036","longitude":"144.96553","postcode":"3000","suburb":"Melbourne","addressLine":"QV2, Foodcourt Lvl 1, Shps 23-25 Urban Market 210 Lonsdale St","geoCodeGranularity":"PROPERTY"},"primaryContacts":[{"value":"(03) 9654 9011","type":"PHONE"}],"hasExposureProducts":false,"listingType":"Business","reportingId":"eyJzb3VyY2UiOiJZRUxMT1ciLCJwcm9kdWN0SWQiOiIxOTUyMzYxNjMiLCJwcm9kdWN0VmVyc2lvbiI6IjEifQ","detailsLink":"http://www.yellowpages.com.au/vic/melbourne/kfc-12421148-listing.html?referredBy=SAPI-9iTF2yxrcw5YGBJgYSrhK8FVPcFRMcrQ","pureMobileBusiness":false},{"name":"Zest Wraps","id":"12579783","categories":[{"name":"Take Away Food","id":"11827","sensitive":false}],"primaryAddress":{"state":"VIC","type":"PHYSICAL","latitude":"-37.81036","longitude":"144.96553","postcode":"3000","suburb":"Melbourne","addressLine":"210 Lonsdale St","geoCodeGranularity":"PROPERTY"},"primaryContacts":[{"value":"(03) 9662 9466","type":"PHONE"}],"hasExposureProducts":false,"listingType":"Business","reportingId":"eyJzb3VyY2UiOiJZRUxMT1ciLCJwcm9kdWN0SWQiOiIyNDgxMjk0NDgiLCJwcm9kdWN0VmVyc2lvbiI6IjIifQ","detailsLink":"http://www.yellowpages.com.au/vic/melbourne/zest-wraps-12579783-listing.html?referredBy=SAPI-9iTF2yxrcw5YGBJgYSrhK8FVPcFRMcrQ","pureMobileBusiness":false},{"name":"CLB No 1 Pty Ltd","id":"711142551V00W","primaryAddress":{"state":"VIC","latitude":"-37.810877","longitude":"144.965332","postcode":"3000","suburb":"Melbourne","addressLine":"Lvl 2/ 3 Albert Coates La","geoCodeGranularity":"PROPERTY"},"shortDescriptor":"","primaryContacts":[{"value":"(03) 9650 8186","type":"PHONE","description":"0396508186"}],"hasExposureProducts":false,"listingType":"B","reportingId":"eyJzb3VyY2UiOiJXSElURSIsImJvb2tJZCI6IlYwMFciLCJsaXN0aW5nTmFtZSI6IkNMQiBObyAxIFB0eSBMdGQifQ"},{"name":"ZZZexZZZ","id":"13099477","categories":[{"name":"Advertising-General","id":"10596","sensitive":false}],"primaryAddress":{"state":"VIC","type":"PHYSICAL","latitude":"-37.81091","longitude":"144.965499","postcode":"3000","suburb":"Melbourne","addressLine":"222 Lonsdale St","geoCodeGranularity":"PROPERTY"},"additionalAddresses":[{"state":"VIC","type":"POSTAL","postcode":"3000","suburb":"Melbourne","addressLine":"PO Box 3000"}],"primaryContacts":[{"value":"(03) 8653 4777","type":"PHONE"}],"hasExposureProducts":false,"listingType":"Business","reportingId":"eyJzb3VyY2UiOiJZRUxMT1ciLCJwcm9kdWN0SWQiOiI0NzQwNzA5NDUiLCJwcm9kdWN0VmVyc2lvbiI6IjEifQ","detailsLink":"http://www.yellowpages.com.au/vic/melbourne/zzzexzzz-13099477-listing.html?referredBy=SAPI-9iTF2yxrcw5YGBJgYSrhK8FVPcFRMcrQ","pureMobileBusiness":false},{"name":"Incu","id":"14630459","categories":[{"name":"Ladies' Wear-Retail","id":"31917","sensitive":false}],"primaryAddress":{"state":"VIC","type":"PHYSICAL","latitude":"-37.810885","longitude":"144.965306","postcode":"3000","suburb":"Melbourne","addressLine":"QV, Shop ACL 12 Albert Coates La","geoCodeGranularity":"PROPERTY"},"primaryContacts":[{"value":"(03) 9654 4725","type":"PHONE"},{"value":"http://www.incuclothing.com","type":"URL"}],"hasExposureProducts":false,"listingType":"Business","reportingId":"eyJzb3VyY2UiOiJZRUxMT1ciLCJwcm9kdWN0SWQiOiI0ODIzMjUwOTQiLCJwcm9kdWN0VmVyc2lvbiI6IjEifQ","detailsLink":"http://www.yellowpages.com.au/vic/melbourne/incu-14630459-listing.html?referredBy=SAPI-9iTF2yxrcw5YGBJgYSrhK8FVPcFRMcrQ","pureMobileBusiness":false},{"name":"Cactus Jam","id":"13766053","categories":[{"name":"Boutiques","id":"41467","sensitive":false}],"primaryAddress":{"state":"VIC","type":"PHYSICAL","latitude":"-37.810885","longitude":"144.965306","postcode":"3000","suburb":"Melbourne","addressLine":"12 Albert Coates La","geoCodeGranularity":"PROPERTY"},"primaryContacts":[{"value":"(03) 9654 0472","type":"PHONE"}],"hasExposureProducts":false,"listingType":"Business","reportingId":"eyJzb3VyY2UiOiJZRUxMT1ciLCJwcm9kdWN0SWQiOiI0NTY2ODM1NjkiLCJwcm9kdWN0VmVyc2lvbiI6IjEifQ","detailsLink":"http://www.yellowpages.com.au/vic/melbourne/cactus-jam-13766053-listing.html?referredBy=SAPI-9iTF2yxrcw5YGBJgYSrhK8FVPcFRMcrQ","pureMobileBusiness":false},{"name":"The Cupcake Family Pty Ltd","id":"717712203V00W","primaryAddress":{"state":"VIC","latitude":"-37.810663","longitude":"144.965056","postcode":"3000","suburb":"Melbourne","addressLine":"22 Red Cape La","geoCodeGranularity":"PROPERTY"},"shortDescriptor":"","primaryContacts":[{"value":"(03) 9663 0055","type":"PHONE","description":"0396630055"}],"hasExposureProducts":false,"listingType":"B","reportingId":"eyJzb3VyY2UiOiJXSElURSIsImJvb2tJZCI6IlYwMFciLCJsaXN0aW5nTmFtZSI6IlRoZSBDdXBjYWtlIEZhbWlseSBQdHkgTHRkIn0"},{"name":"Cupcake Family The","id":"12722115","categories":[{"name":"Cake & Pastry Shops","id":"17825","sensitive":false}],"primaryAddress":{"state":"VIC","type":"PHYSICAL","latitude":"-37.81066","longitude":"144.965055","postcode":"3000","suburb":"Melbourne","addressLine":"22 Red Cape La","geoCodeGranularity":"PROPERTY"},"primaryContacts":[{"value":"(03) 9650 6485","type":"PHONE"}],"hasExposureProducts":false,"listingType":"Business","reportingId":"eyJzb3VyY2UiOiJZRUxMT1ciLCJwcm9kdWN0SWQiOiIyNTM2OTA0ODMiLCJwcm9kdWN0VmVyc2lvbiI6IjIifQ","detailsLink":"http://www.yellowpages.com.au/vic/melbourne/cupcake-family-the-12722115-listing.html?referredBy=SAPI-9iTF2yxrcw5YGBJgYSrhK8FVPcFRMcrQ","pureMobileBusiness":false},{"name":"Cactus Jam International","id":"13766051","categories":[{"name":"Boutiques","id":"41467","sensitive":false}],"primaryAddress":{"state":"VIC","type":"PHYSICAL","latitude":"-37.810912","longitude":"144.965221","postcode":"3000","suburb":"Melbourne","addressLine":"14 Albert Coates La","geoCodeGranularity":"PROPERTY"},"primaryContacts":[{"value":"(03) 9654 1087","type":"PHONE"}],"hasExposureProducts":false,"listingType":"Business","reportingId":"eyJzb3VyY2UiOiJZRUxMT1ciLCJwcm9kdWN0SWQiOiI0NTY2ODMzODkiLCJwcm9kdWN0VmVyc2lvbiI6IjEifQ","detailsLink":"http://www.yellowpages.com.au/vic/melbourne/cactus-jam-international-13766051-listing.html?referredBy=SAPI-9iTF2yxrcw5YGBJgYSrhK8FVPcFRMcrQ","pureMobileBusiness":false},{"name":"Vanishing Elephant","id":"721318094V00W","primaryAddress":{"state":"VIC","latitude":"-37.810912","longitude":"144.965221","postcode":"3000","suburb":"Melbourne","addressLine":"14 Albert Coates Rd","geoCodeGranularity":"PROPERTY"},"shortDescriptor":"","primaryContacts":[{"value":"(03) 9639 3869","type":"PHONE","description":"0396393869"}],"hasExposureProducts":false,"listingType":"B","reportingId":"eyJzb3VyY2UiOiJXSElURSIsImJvb2tJZCI6IlYwMFciLCJsaXN0aW5nTmFtZSI6IlZhbmlzaGluZyBFbGVwaGFudCJ9"},{"name":"Kam Otto Boutique","id":"12773345","categories":[{"name":"Ladies' Wear-Retail","id":"31917","sensitive":false}],"primaryAddress":{"state":"VIC","type":"PHYSICAL","latitude":"-37.81085","longitude":"144.96507","postcode":"3000","suburb":"Melbourne","addressLine":"9 Albert Coates La","geoCodeGranularity":"PROPERTY"},"primaryContacts":[{"value":"(03) 9662 3305","type":"PHONE"}],"hasExposureProducts":false,"listingType":"Business","reportingId":"eyJzb3VyY2UiOiJZRUxMT1ciLCJwcm9kdWN0SWQiOiIyNzQ1NzQxNTciLCJwcm9kdWN0VmVyc2lvbiI6IjEifQ","detailsLink":"http://www.yellowpages.com.au/vic/melbourne/kam-otto-boutique-12773345-listing.html?referredBy=SAPI-9iTF2yxrcw5YGBJgYSrhK8FVPcFRMcrQ","pureMobileBusiness":false},{"name":"QV","id":"11913185","categories":[{"name":"Shopping Centres","id":"33839","sensitive":false}],"primaryAddress":{"state":"VIC","type":"PHYSICAL","latitude":"-37.81085","longitude":"144.96507","postcode":"3000","suburb":"Melbourne","addressLine":"3 Albert Coates La","geoCodeGranularity":"PROPERTY"},"primaryContacts":[{"value":"(03) 9658 0100","type":"PHONE"}],"hasExposureProducts":false,"listingType":"Business","reportingId":"eyJzb3VyY2UiOiJZRUxMT1ciLCJwcm9kdWN0SWQiOiIyMzc2Mjg2ODMiLCJwcm9kdWN0VmVyc2lvbiI6IjIifQ","detailsLink":"http://www.yellowpages.com.au/vic/melbourne/qv-11913185-listing.html?referredBy=SAPI-9iTF2yxrcw5YGBJgYSrhK8FVPcFRMcrQ","pureMobileBusiness":false},{"name":"QV","id":"13347436","categories":[{"name":"Tourist Attractions, Information & Services","id":"21962","sensitive":false}],"primaryAddress":{"state":"VIC","type":"PHYSICAL","latitude":"-37.81085","longitude":"144.96507","postcode":"3000","suburb":"Melbourne","addressLine":"3 Albert Coates La","geoCodeGranularity":"PROPERTY"},"primaryContacts":[{"value":"(03) 9658 0100","type":"PHONE"}],"hasExposureProducts":false,"listingType":"Business","reportingId":"eyJzb3VyY2UiOiJZRUxMT1ciLCJwcm9kdWN0SWQiOiIyNzA3Njc4MTciLCJwcm9kdWN0VmVyc2lvbiI6IjEifQ","detailsLink":"http://www.yellowpages.com.au/vic/melbourne/qv-13347436-listing.html?referredBy=SAPI-9iTF2yxrcw5YGBJgYSrhK8FVPcFRMcrQ","pureMobileBusiness":false},{"name":"Dizingof","id":"12461683","categories":[{"name":"Ladies' Wear-Retail","id":"31917","sensitive":false}],"primaryAddress":{"state":"VIC","type":"PHYSICAL","latitude":"-37.81085","longitude":"144.96507","postcode":"3000","suburb":"Melbourne","addressLine":"Level 1,13- 15 Albert Coats La","geoCodeGranularity":"PROPERTY"},"primaryContacts":[{"value":"(03) 9663 3722","type":"PHONE"}],"hasExposureProducts":false,"listingType":"Business","reportingId":"eyJzb3VyY2UiOiJZRUxMT1ciLCJwcm9kdWN0SWQiOiIyNzc0MTYyOTUiLCJwcm9kdWN0VmVyc2lvbiI6IjEifQ","detailsLink":"http://www.yellowpages.com.au/vic/melbourne/dizingof-12461683-listing.html?referredBy=SAPI-9iTF2yxrcw5YGBJgYSrhK8FVPcFRMcrQ","pureMobileBusiness":false}],"count":20,"totalResults":43,"executedQuery":"","originalQuery":"","currentPage":1,"totalPages":3,"message":"OK","date":"2012-07-12T15:32:29.737+1000","time":11,"code":200}